%YAML 1.1
%TAG !u! tag:unity3d.com,2011:
--- !u!78 &1
TagManager:
  serializedVersion: 2
  tags:
  - Pawns
  layers:
  - Default
  - TransparentFX
  - Ignore Raycast
  - 
  - Water
  - UI
  - 
  - 
  - 
  - 
  - 
  - 
  - 
  - 
  - 
  - 
  - 
  - 
  - 
  - 
  - 
  - 
  - 
  - 
  - 
  - 
  - 
  - 
  - 
  - 
  - 
  - 
  m_SortingLayers:
  - name: BG
    uniqueID: 3955134991
    locked: 0
  - name: Default
    uniqueID: 0
    locked: 0
  - name: armyTools
    uniqueID: 1167148387
    locked: 0
  - name: Peeps
    uniqueID: 2356103163
    locked: 0
  - name: Tools
    uniqueID: 3181851285
    locked: 0
  - name: bubble
    uniqueID: 4028664571
    locked: 0
  - name: UI
    uniqueID: 455644953
    locked: 0
